…
and it’s also works for `evaluate_generator` and `predict_generator`.
Note that `predict_generator` also provided `tidy_output` option to
specify whether the prediction output should be tidied. The default
value for this option is set to `TRUE`:

``` r
model %>% evaluate_generator(val_gen)
#> $loss
#> [1] 0.367352
#> 
#> $acc
#> [1] 0.8333333

model %>% predict_generator(val_gen)
#> # A tibble: 30 x 4
#>      setosa versicolor virginica class 
#>       <dbl>      <dbl>     <dbl> <fct> 
#>  1 0.990       0.00943  0.000247 setosa
#>  2 0.0340      0.347    0.619    setosa
#>  3 0.0156      0.800    0.184    setosa
#>  4 0.00278     0.496    0.501    setosa
#>  5 0.996       0.00374  0.000149 setosa
#>  6 0.000604    0.845    0.154    setosa
#>  7 0.00116     0.275    0.723    setosa
#>  8 0.0313      0.488    0.480    setosa
#>  9 0.0218      0.482    0.497    setosa
#> 10 0.998       0.00159  0.000144 setosa
#> # … with 20 more rows
```
…
