Data Generator for R interface to Keras • kerasgenerator
…
Note that predict_generator also provided label option to specify whether the prediction output should be tidied. The default value for this option is set to TRUE:

model %>% evaluate_generator(val_gen)
#> $loss
#> [1] 0.4536896
#> 
#> $acc
#> [1] 0.8222222

model %>% predict_generator(val_gen)
#> # A tibble: 45 x 4
#>    setosa versicolor virginica label 
#>     <dbl>      <dbl>     <dbl> <fct> 
#>  1 0.776      0.168     0.0554 setosa
#>  2 0.858      0.117     0.0250 setosa
#>  3 0.0190     0.496     0.485  setosa
#>  4 0.0619     0.624     0.314  setosa
#>  5 0.935      0.0291    0.0356 setosa
#>  6 0.305      0.333     0.363  setosa
#>  7 0.0364     0.384     0.580  setosa
#>  8 0.0477     0.716     0.236  setosa
#>  9 0.0771     0.323     0.600  setosa
#> 10 0.954      0.0317    0.0144 setosa
#> # … with 35 more rows
…
